{
  "Comment.nvim": { "branch": "master", "commit": "0236521ea582747b58869cb72f70ccfa967d2e89" },
  "LuaSnip": { "branch": "master", "commit": "78296bfabf756dbb6c7134aa219e75564dddf40f" },
  "bufferline.nvim": { "branch": "main", "commit": "f4b4b980ce88d546aeb69d11463187c8f716a1a1" },
  "cmp-nvim-lsp": { "branch": "main", "commit": "39e2eda76828d88b773cc27a3f61d2ad782c922d" },
  "cmp_luasnip": { "branch": "master", "commit": "05a9ab28b53f71d1aece421ef32fee2cb857a843" },
  "friendly-snippets": { "branch": "main", "commit": "dd2fd1281d4b22e7b4a5bfafa3e142d958e251f2" },
  "gitsigns.nvim": { "branch": "main", "commit": "805610a9393fa231f2c2b49cb521bfa413fadb3d" },
  "indent-blankline.nvim": { "branch": "master", "commit": "171d4d5a1560ccb556e94aa6df7e969068384049" },
  "kanagawa.nvim": { "branch": "master", "commit": "860e4f80df71221d18bf2cd9ef1deb4d364274d2" },
  "lazy.nvim": { "branch": "main", "commit": "758bb5de98b805acc5eeed8cdc8ac7f0bc4b0b86" },
  "lsp-zero.nvim": { "branch": "v3.x", "commit": "f12d50716e8e59ea9f5cf484eac6968c33a95917" },
  "lualine.nvim": { "branch": "master", "commit": "0a5a66803c7407767b799067986b4dc3036e1983" },
  "mason-lspconfig.nvim": { "branch": "main", "commit": "9ae570e206360e47d30b4c35a4550c165f4ea7b7" },
  "mason.nvim": { "branch": "main", "commit": "49ff59aded1047a773670651cfa40e76e63c6377" },
  "noice.nvim": { "branch": "main", "commit": "2c49d4a7fdeaca930bb08a8239bdf5bccc26507b" },
  "nui.nvim": { "branch": "main", "commit": "a3597dc88b53489d3fddbddbbd13787355253bb0" },
  "nvim-cmp": { "branch": "main", "commit": "5260e5e8ecadaf13e6b82cf867a909f54e15fd07" },
  "nvim-lspconfig": { "branch": "master", "commit": "a284b14b3a9c4851f900286cd7eb68e3a8f90b1c" },
  "nvim-notify": { "branch": "master", "commit": "5371f4bfc1f6d3adf4fe9d62cd3a9d44356bfd15" },
  "nvim-tree.lua": { "branch": "master", "commit": "2bc725a3ebc23f0172fb0ab4d1134b81bcc13812" },
  "nvim-treesitter": { "branch": "master", "commit": "8012b55eee65eba1d1ee4df0a186d30e72dcbe65" },
  "nvim-web-devicons": { "branch": "master", "commit": "e37bb1feee9e7320c76050a55443fa843b4b6f83" },
  "plenary.nvim": { "branch": "master", "commit": "08e301982b9a057110ede7a735dd1b5285eb341f" },
  "startup.nvim": { "branch": "master", "commit": "c6ba324f9eba0c23b675b53af431346aab893268" },
  "telescope.nvim": { "branch": "master", "commit": "52f500110bcf9190b44b4d8640162adc86772ec4" },
  "which-key.nvim": { "branch": "main", "commit": "4433e5ec9a507e5097571ed55c02ea9658fb268a" }
}